// Jest Snapshot v1, https://goo.gl/fbAQLP

exports[`Test Input component 1`] = `
<input
  className="input"
  onChange={[Function]}
/>
`;

exports[`Test Input component 2`] = `
<input
  className="input"
  onChange={[Function]}
  placeholder="Enter your value"
/>
`;

exports[`Test Input component 3`] = `
<input
  className="input"
  onChange={[Function]}
  placeholder="Enter your value"
  value="Backer Streer, London"
/>
`;
